{
  "claims": {
    "M": {
      "facilityCode": {
        "S": "1925test"
      },
      "multiplier": {
        "N": "15"
      },
      "SKU": {
        "S": "Test"
      }
    }
  },
  "dbIdentifier": {
    "S": "arena"
  },
  "hospitalID": {
    "S": "arena001"
  },
  "isActive": {
    "N": "1"
  },
  "name": {
    "S": "Arena Health"
  },
  "orderIdentifier": {
    "S": "rnaehl"
  }
}